﻿Timo;45319
Juha;45262
Matti;44321
Kari;41047
Mikko;38964
Antti;38360
Jari;38266
Jukka;34515
Mika;33764
Markku;33634
Pekka;33136
Hannu;30624
Heikki;29937
Seppo;28789
Janne;27714
Ari;27326
Sami;26332
Ville;25781
Marko;25271
Petri;24284
Lauri;23528
Jani;22869
Erkki;22791
Pentti;22251
Jorma;21170
Teemu;20347
Harri;20203
Eero;19280
Raimo;18953
Jaakko;18851
Jarmo;18843
Risto;18655
Jussi;18172
Pasi;18157
Esa;17324
Juho;17258
Pertti;17133
Martti;16926
Jouni;16876
Niko;16876
Toni;16792
Arto;16504
Reijo;16426
Veikko;16074
Markus;15840
Vesa;15594
Jouko;15591
Tomi;15520
Tuomas;15394
Olli;15326
Aleksi;15269
Esko;15084
Kimmo;14883
Joni;14545
Tommi;14398
Tero;13997
Joonas;13136
Henri;12689
Eetu;12354
Leo;11617
Kalle;11531
Ilkka;11468
Jarkko;11409
Paavo;11328
Pauli;11035
Jesse;11012
Eino;10719
Tuomo;10706
Joona;10554
Elias;9931
Tapio;9922
Jere;9875
Mikael;9652
Veli;9592
Juuso;9547
Matias;9348
Onni;9313
Keijo;9104
Simo;8977
Arttu;8860
Jyrki;8835
Lasse;8678
Leevi;8375
Juhani;8256
Aki;8084
Kai;7935
Mauri;7934
Toivo;7934
Riku;7881
Väinö;7807
Joel;7748
Niklas;7707
Otto;7629
Miika;7445
Kauko;7404
Jarno;7338
Reino;7246
Daniel;7079
Jan;7072
Niilo;7061
Veeti;7010
Rauno;6992
Valtteri;6913
Teuvo;6782
Rasmus;6418
Ossi;6186
Olavi;6174
Roope;6111
Ismo;5968
Tauno;5944
Veijo;5929
Santeri;5908
Anssi;5781
Oskari;5721
Anton;5698
Atte;5674
Osmo;5563
Aaro;5532
Oliver;5497
Vilho;5481
Miro;5461
Kalevi;5448
Asko;5427
Samuli;5344
Samu;5261
Aapo;5113
Samuel;5090
Emil;5036
Tuukka;5014
Lassi;4964
Kim;4934
Aimo;4891
Taisto;4863
Yrjö;4742
Johan;4589
Eemeli;4542
Roni;4454
Julius;4424
Topi;4409
Jimi;4367
Konsta;4295
Aarne;4292
Henry;4292
Henrik;4276
Karl;4276
Tarmo;4205
Tapani;4188
Miikka;4161
Tatu;4122
Akseli;4100
Mauno;4100
Jyri;4078
Erik;4070
Sakari;3996
Viljo;3977
Aatu;3976
Johannes;3962
Max;3889
Tom;3883
Alex;3877
Saku;3852
Sauli;3841
Patrik;3833
Ahti;3805
Arvo;3794
Ilpo;3783
Vili;3767
Kaarlo;3679
Alpo;3597
Eemil;3595
Kasper;3571
Kaj;3561
Lars;3533
Viljami;3509
Oiva;3476
Kristian;3464
Rami;3446
Veli-Matti;3435
Unto;3341
Jonne;3325
Peter;3301
Benjamin;3299
Kyösti;3244
Iiro;3229
Eeli;3201
Juha-Pekka;3184
Miska;3178
Eelis;3168
Lenni;3148
Heimo;3046
Jami;3028
Sampo;3013
Topias;3004
Jukka-Pekka;2952
Aulis;2921
Nico;2902
Sebastian;2879
Robert;2826
Pyry;2818
Otso;2798
Hans;2742
Teppo;2735
Tony;2718
Luka;2699
Urho;2695
Aaron;2689
Hugo;2658
Sulo;2574
Aku;2551
Petteri;2551
Thomas;2550
Alexander;2547
Leif;2533
Miko;2513
Santtu;2487
Ilari;2436
Nooa;2382
Perttu;2380
Panu;2376
Noel;2370
Robin;2317
Luukas;2308
Harry;2290
Veli-Pekka;2287
Carl;2256
Voitto;2253
Veikka;2238
Tomas;2229
Juha-Matti;2212
Peetu;2194
Elmeri;2174
Olli-Pekka;2165
Jonas;2148
Urpo;2117
Rainer;2105
John;2100
Jasper;2086
Ilmari;2073
Terho;2029
Nils;1985
Lucas;1955
Antero;1946
Aarno;1934
Nuutti;1934
Christian;1927
Aatos;1908
Paul;1902
Tino;1894
Oskar;1892
Klaus;1874
Teijo;1865
Reima;1861
Joonatan;1847
Lukas;1826
Aarre;1780
Anders;1772
Bengt;1757
Stefan;1757
Lari;1751
Aarni;1748
Joakim;1745
Hannes;1737
Severi;1723
Kaapo;1701
Stig;1693
Tommy;1647
Kasperi;1644
Ari-Pekka;1640
Arvi;1631
Oscar;1628
Frans;1618
Justus;1610
Axel;1601
Rolf;1594
Alvar;1575
Karri;1567
Jesper;1555
Sisu;1545
Sven;1535
Luca;1526
Andreas;1519
Marcus;1511
Kalervo;1503
William;1502
Jori;1494
Martin;1475
Manu;1474
Erno;1470
Kurt;1454
Ali;1437
Jerry;1411
Elmo;1398
Tenho;1388
Mats;1381
Kimi;1377
Kenneth;1370
Taneli;1365
Ralf;1355
Jooa;1338
Touko;1314
Timi;1312
Jari-Pekka;1275
Patrick;1271
Taavi;1270
Rauli;1268
Vertti;1250
Simon;1247
Bo;1242
Jonathan;1235
Viktor;1233
Per;1228
Björn;1226
Fredrik;1207
Verneri;1203
Raine;1178
Eemi;1176
Milo;1168
Jiri;1159
Felix;1158
Michael;1158
Heino;1152
Juhana;1137
Linus;1132
Mico;1124
Kevin;1117
Mohamed;1084
Eerik;1068
Casper;1065
Kosti;1057
Ulf;1054
Dan;1052
Tuure;1044
Tobias;1029
Jan-Erik;1021
David;1011
Sampsa;1005
Mathias;997
Artturi;995
Helge;990
Niki;964
Adam;935
Edvin;934
Ville-Veikko;925
Armas;923
Christer;914
Allan;912
Visa;912
Magnus;908
Erkka;901
Bror;898
Auvo;896
Jens;896
Noah;894
Ilmo;878
Taito;871
Victor;846
Iikka;840
Alf;838
Kjell;827
Krister;820
Roger;816
Jose;811
Eliel;809
Jalo;809
Joose;805
Tiitus;798
Valto;798
Ukko;792
Petrus;791
Sasu;789
Jeremias;782
Albert;766
Marco;766
Niclas;765
Teo;761
Jussi-Pekka;759
Aleksanteri;756
Vesa-Matti;755
Göran;750
Altti;749
Waltteri;749
Jimmy;741
Antton;726
Kaarle;726
Isto;725
Jon;722
Okko;721
Börje;717
Jonatan;716
Leon;716
Nikolas;712
Filip;707
Jarl;706
Niila;700
Ahmed;676
Johnny;670
Roy;663
Nicolas;657
Richard;653
Iivo;650
Paulus;648
Oula;646
Liam;642
Eric;641
Tor;640
Elia;639
Noa;639
Iivari;631
Gabriel;623
Turo;620
Jim;619
Torsti;611
Jonni;609
Dennis;600
Vincent;598
Venni;585
Tim;584
Andrei;580
Hemmo;575
Rene;575
Ilja;574
Christoffer;568
Nicholas;561
Mio;555
Rafael;552
Reko;552
Ben;550
Ensio;550
Aamos;547
Håkan;547
Åke;547
Isak;546
Eevert;545
Mark;540
Bjarne;538
Jalmari;532
Hermanni;531
Sam;521
Atso;519
Petja;516
Kauno;515
Frank;513
Ville-Pekka;512
Nikolai;509
Adrian;506
Raino;505
Theo;504
Usko;503
Vesa-Pekka;501
Miki;500
Gunnar;498
Pietari;494
Jasu;492
Walter;492
Jare;491
Juri;490
Dani;489
Eppu;484
Mirko;481
Aron;478
Vladimir;474
Eljas;470
Aapeli;466
Elis;466
Amos;465
Antti-Jussi;463
Arno;459
Guy;457
Valter;455
Arne;453
Mohammad;442
Kari-Pekka;437
Jaro;433
Aukusti;432
Neo;431
Gustav;430
Georg;424
Toimi;421
Christopher;418
Pontus;416
Antti-Pekka;415
Kaius;414
Sten;414
Aatto;406
Pekko;406
Boris;405
Ronny;403
Einari;402
Omar;400
Nicklas;396
Arsi;395
Turkka;395
Aksel;394
Samppa;388
Elliot;387
Aleksandr;383
Into;382
Kent;382
Rune;379
Tage;379
Antto;376
André;375
Klas;373
Mattias;373
Sergei;363
Ivan;362
Jakob;362
Kristoffer;359
Romeo;355
Soini;355
Mikke;354
Asmo;348
Wille;347
Mohammed;345
Maxim;343
Osku;343
Nestori;342
Artur;341
Uuno;341
Jonny;338
Elmer;336
Ibrahim;335
Bruno;334
Joa;334
Pavel;332
Igor;331
Van;330
Arthur;329
Ole;327
Nino;325
Orvo;324
Matts;322
Vilppu;322
Ruben;319
Ville-Petteri;319
Anttoni;316
Albin;314
Philip;314
Wilhelm;314
Muhammad;312
Abdirahman;311
Svante;311
Nikita;310
Amir;308
Pietu;308
Herman;303
Aleksander;302
James;302
Joosua;302
Karo;302
Mitja;302
Pete;302
Alvin;301
Lennart;300
Valde;299
Aake;298
Jacob;297
Esa-Pekka;294
Kasimir;294
Viljam;294
August;292
Roman;292
Hannu-Pekka;291
Karim;290
Maximilian;290
Pirkka;290
Erkko;288
Jari-Matti;288
Jean;288
Ove;288
Ville-Matti;288
Vihtori;287
Denis;286
Edward;285
Alfred;284
Aleksis;283
Herkko;283
Mertsi;283
Per-Erik;282
Valo;282
Arvid;281
Evert;281
Jörgen;281
Jack;280
Olof;280
Gösta;279
Marius;279
Asser;278
Petro;278
Roland;278
Bernt;277
Einar;277
Ohto;276
Sune;276
Edvard;275
Ari-Matti;273
Iisakki;273
Kaino;273
Birger;271
Nikke;271
Masi;270
Petter;270
Maunu;269
Torsten;268
Totti;268
Benny;267
Joachim;266
Jason;265
Joshua;265
Aleksei;262
Aslak;261
Jake;261
Abdullahi;260
Rikhard;260
Verner;259
Juho-Pekka;258
Kuisma;258
Jaani;257
Berndt;255
Ernst;254
Rony;254
Timo-Pekka;253
Julian;251
Eeti;249
Ivar;249
Jetro;249
Dimitri;248
Dick;247
Oleg;247
Karl-Erik;246
Ted;246
Immo;245
Mustafa;242
Konstantin;240
Peik;239
Alvari;238
Knut;238
Charles;237
Anselmi;236
Jone;235
Lars-Erik;235
Pessi;235
Carl-Johan;234
Ian;231
Maksim;231
Jasse;230
Manuel;230
Samir;230
Sergey;230
Bertel;227
Manne;225
Renne;225
Mårten;224
Olli-Matti;224
Kare;223
Wiljami;221
Dominic;220
Hassan;220
Miio;220
Ingmar;219
Anthony;218
Iisak;218
Ronnie;218
Mikhail;217
Veini;217
Ola;216
Simeon;216
Casimir;215
Eddie;215
Milton;214
Raul;214
Dmitri;213
Wilmer;213
Yngve;213
Conny;212
Melvin;212
Ahmad;211
Alec;210
Alexandre;210
Matthew;210
Staffan;210
Ville-Valtteri;209
Antonio;206
Tore;206
Kennet;205
Edwin;203
Jermu;203
Yusuf;203
Jali;202
Joe;202
Mike;202
Rauni;202
Sture;200
Caj;199
Jani-Petteri;199
Kerkko;199
Olle;198
Jaska;197
Kirill;197
Wäinö;197
Aappo;196
Frej;196
Holger;196
Rico;195
Aarto;194
Benjam;194
Glenn;193
Hussein;190
Simo-Pekka;190
Sixten;190
Nemo;189
Kuutti;188
Leonard;188
Ami;187
Andrey;187
Huugo;187
Isac;187
Jeremia;187
Miiko;187
Carlos;185
Hamza;185
Jarko;184
Kristo;183
Mihail;183
Jesperi;182
Jusa;182
René;182
Sören;182
Ron;181
Terno;181
Helmer;179
Sami-Pekka;178
Hemmi;177
Mehmet;177
Andrew;176
Karl-Johan;176
Atro;175
Folke;175
Fred;175
Kari-Matti;174
Marc;174
Micke;174
Remu;172
Rudolf;172
Sami-Petteri;172
Harald;171
Leonardo;171
Valentin;171
Viggo;171
Gustaf;170
Aate;168
Levi;168
Abdi;167
Tristan;167
Elja;166
Kaspian;166
Ken;166
Said;166
Saska;166
Vilhelm;166
Alexey;165
Benjami;165
Ismail;163
Kauri;162
Ossian;162
Dmitry;161
Zacharias;160
Cristian;158
Jan-Peter;157
Rickard;157
Torbjörn;156
Jan-Mikael;155
Artem;154
Jani-Pekka;154
Henrikki;153
Josef;153
Thor;153
Amin;152
Juho-Matti;152
Alexi;151
Alfons;151
Uolevi;151
Anas;150
Esa-Matti;150
Uula;150
Valeri;149
Khalid;148
Kusti;148
Matteus;148
Sakke;148
Joseph;147
Mahamed;147
Risto-Matti;147
Daniil;146
Kullervo;146
Miiro;146
Bertil;145
Miklas;145
Aati;144
Niko-Petteri;144
Saul;144
Per-Olof;143
Hiski;142
Niilas;142
Werner;142
Kaj-Erik;141
Eikka;140
Akusti;139
Alvi;139
Elo;139
Jero;139
Lenny;139
Liinus;139
Ragnar;139
Sulevi;139
Titus;139
Hasan;138
Juan;138
Alexei;137
Mitro;137
Janne-Pekka;136
Ryan;136
Clas;135
Jaajo;135
Milan;135
Torolf;135
Colin;133
Abdul;132
Jirka;132
Luke;132
Misa;132
Anttu;131
Kustaa;131
Matti-Pekka;131
Vikke;131
Greger;130
Morris;130
Sven-Erik;130
Vinski;130
Juha-Petri;129
Verne;129
Jyry;128
Abdullah;127
Eeka;127
Sammy;127
Vadim;127
Jiro;126
Nathan;126
Eevertti;125
George;125
Jeremy;125
Juhamatti;125
Myrsky;125
Alpi;124
Curt;124
Eduard;124
Miku;124
Muhammed;124
Riku-Pekka;124
Ville-Markus;124
Alexis;123
Claes;123
Juha-Petteri;123
Roberto;123
Edgar;122
Micael;122
Mikko-Pekka;122
Rabbe;122
Werneri;122
Charlie;121
Leino;121
Ludvig;121
Minh;121
Ahto;120
Valle;120
Valtti;120
Alan;119
Elian;119
Jaan;119
Theodor;119
Fabian;118
Pär;118
Valdemar;118
Asla;116
Jeri;116
Juska;116
Tyko;116
Vladislav;116
Roi;115
Tami;115
Vidar;115
Elvis;114
Hampus;114
Nils-Erik;114
Osman;114
Otava;114
Rufus;114
Thanh;114
Uljas;114
Harto;113
Md.;113
Wiljam;113
Anatoli;112
Auno;112
Patric;112
Sean;112
Silvo;112
Eerikki;111
Jussi-Petteri;111
Luis;111
Andre;110
Bo-Erik;110
Karlo;110
Måns;110
Raoul;110
Aksu;109
Evgeny;109
Ture;109
Zakaria;109
Emir;108
Timothy;108
Weeti;108
Milko;107
Remi;107
Runar;106
Taavetti;106
Mauritz;105
Arimo;104
Jasperi;104
Jaako;103
Jakke;103
Kalle-Pekka;103
Aale;102
Olav;102
Riki;102
Rolle;102
Dylan;101
Finn;101
Jeremi;101
Kosmo;101
Miguel;101
Riku-Petteri;101
Stanislav;101
Toomas;101
Emilio;100
Jouka;100
Keimo;100
Carl-Erik;99
Deniz;99
Jerker;99
Yasin;99
Asseri;98
Eki;98
Emre;98
Jan-Olof;98
Valtter;98
Vili-Valtteri;98
Chris;97
Ari-Jukka;96
Bilal;96
Carlo;96
Jan-Henrik;96
Kenny;96
Pedro;96
Tuisku;96
Adnan;95
Aleks;95
Eemu;95
Mario;95
Vitali;95
Eero-Pekka;94
Ethan;94
Kristofer;94
Pehr;94
Sakarias;94
Jussa;93
Sameli;93
Semi;93
Urmas;93
Claus;92
Nestor;92
Pepe;92
Aki-Petteri;91
Brian;91
Lemmy;91
Rurik;91
Dante;90
Evan;90
Ilyas;90
Jani-Matti;90
Joni-Petteri;90
Ray;90
Selim;90
Steven;90
Elton;89
Mikki;89
Niku;89
Joni-Pekka;88
Matteo;88
Timur;88
Eliot;87
Emppu;87
Jerri;87
Antti-Juhani;86
Hans-Erik;86
Juuse;86
Leonid;86
Stephen;86
Wili;86
Ano;85
Emmanuel;85
Herbert;85
Joska;85
Lionel;85
Marlo;85
Ronald;85
Jamal;84
Ricardo;84
Dag;83
Joacim;83
José;83
Marek;83
Nick;83
Uno;83
Alarik;82
Ante;82
Fjalar;82
Huuko;82
Jan-Kristian;82
Nuuti;82
Veetu;82
Wilho;82
Jooel;81
Kian;81
Taimo;81
Tito;81
Jonah;80
Matthias;80
Michel;80
Mika-Petteri;80
Rayan;80
Veli-Jussi;80
Abdulkadir;79
Abel;79
Arman;79
Diego;79
Jan-Eric;79
Muhamed;79
Nicky;79
Rudi;79
Totte;79
Alessandro;78
Caspian;78
Isaac;78
Melker;78
Miikael;78
Antti-Ville;77
Carl-Gustav;77
Jyri-Pekka;77
Kaspar;77
Maximus;77
Pieti;77
Ralph;77
Sven-Olof;77
Timmy;77
Malte;76
Mika-Petri;76
Oliwer;76
Renny;76
Caius;75
Ekku;75
Ilppo;75
Olli-Petteri;75
Otto-Ville;75
Reetu;75
Dominik;74
Hasse;74
Jamie;74
Juho-Antti;74
Marlon;74
Mehdi;74
Reeti;74
Tarvo;74
Teodor;74
Hamid;73
Jamiel;73
Raymond;73
Riko;73
Aito;72
Jan-Markus;72
Jokke;72
Jona;72
Karl-Gustav;72
Mohamad;72
Quoc;72
Ruuben;72
Tahvo;72
Ilya;71
Louis;71
Mahdi;71
Miikkael;71
Mika-Matti;71
Morgan;71
Pablo;71
Eskil;70
Jirko;70
Josua;70
Md;70
Mohamud;70
Murat;70
Tero-Pekka;70
Youssef;70
Abbas;69
Ahmet;69
Armo;69
Arnold;69
Bert;69
Calle;69
Elvin;69
Ere;69
Eugen;69
Harri-Pekka;69
Jukka-Matti;69
Justin;69
Lenne;69
Matvei;69
Moritz;69
Nelson;69
Riku-Matti;69
Vieno;69
Alexandros;68
Aram;68
Arian;68
Helmeri;68
Juho-Petteri;68
Junnu;68
Mahad;68
Nikolaos;68
Stephan;68
Vilmer;68
Yahya;68
Hilding;67
Janne-Petteri;67
Juhapekka;67
Julle;67
Risto-Pekka;67
Tomi-Pekka;67
Viking;67
Andy;66
Franz;66
Hjalmar;66
Jony;66
Jussi-Matti;66
Leonel;66
Anthon;65
Jan-Anders;65
Kenth;65
Mika-Pekka;65
Musa;65
Carl-Gustaf;64
Duc;64
Elof;64
Launo;64
Ludwig;64
Malik;64
Ollipekka;64
Reh;64
Robi;64
Andres;63
Carl-Henrik;63
Ingvar;63
Jerome;63
Jordan;63
Lenna;63
Masa;63
Steve;63
Veli-Jukka;63
Vili-Petteri;63
Georgios;62
Josi;62
Jukka-Petteri;62
Nabil;62
Trygve;62
Andrea;61
Cay;61
Karlos;61
Konrad;61
Mici;61
Pauno;61
Serguei;61
Valio;61
Anh;60
Enzo;60
Kiril;60
Lalli;60
Lennu;60
Melwin;60
Nikolay;60
Pasi-Pekka;60
Sander;60
Timo-Jaakko;60
Yahye;60
Havu;59
Ilias;59
Janne-Matti;59
Kunto;59
Sasha;59
Scott;59
Seemi;59
Sipi;59
Tor-Erik;59
Zachary;59
Abdifatah;58
Ariel;58
Atle;58
Cedric;58
Emanuel;58
Imran;58
Joar;58
Jura;58
Karl-Henrik;58
Kuura;58
Mikko-Petteri;58
Ramin;58
Rikard;58
Velimatti;58
Willy;58
Alexandr;57
Damian;57
Mikail;57
Rio;57
Robertino;57
Salomo;57
Stig-Erik;57
Vaito;57
Waltter;57
Ville-Oskari;57
Yury;57
Ale;56
Algot;56
Arho;56
Francisco;56
Jari-Jukka;56
Kaapro;56
Nicke;56
Paolo;56
Seyed;56
Winston;56
Anto;55
Elijah;55
Johann;55
Jooseppi;55
Karel;55
Khaled;55
Mustapha;55
Ristomatti;55
Runo;55
Ruslan;55
Salomon;55
Veli-Heikki;55
Velu;55
Vilhelmi;55
Brandon;54
Damien;54
Egil;54
Eirik;54
Ermo;54
Feetu;54
Hoang;54
Keni;54
Lars-Johan;54
Mert;54
Quang;54
Aki-Pekka;53
Ate;53
Jari-Petteri;53
Jomi;53
Marcel;53
Miron;53
Petr;53
Rachid;53
Raineri;53
Riiko;53
Syed;53
Bernhard;52
Darin;52
Ernest;52
Halti;52
Matheo;52
Omer;52
Stig-Olof;52
Torvald;52
Ukko-Pekka;52
Waldemar;52
Alberto;51
Amar;51
Artti;51
Aston;51
Danny;51
Eeki;51
Jemi;51
Ngoc;51
Sayed;51
Toni-Pekka;51
Valte;51
Antoni;50
Antte;50
Christofer;50
Jevgeni;50
Paavali;50
Sigurd;50
Troy;50
Ömer;50
Adel;49
Adil;49
Anwar;49
Azad;49
Fredric;49
Glen;49
Isko;49
Jaakob;49
Juha-Antti;49
Kaleva;49
Konstantinos;49
Lassi-Pekka;49
Mahmoud;49
Marcos;49
Miso;49
Ricky;49
Saku-Petteri;49
Timofei;49
Aidan;48
Ayub;48
Carl-Magnus;48
Caspar;48
Faisal;48
Feliks;48
Huu;48
Jan-Christian;48
Jaron;48
Jayden;48
Jore;48
Juno;48
Lev;48
Lippo;48
Markko;48
Mostafa;48
Odin;48
Per-Ole;48
Stig-Göran;48
Veli-Mikko;48
Vesa-Heikki;48
Ville-Matias;48
Arttur;47
Bill;47
Don;47
Egor;47
Paulo;47
Sakariye;47
Tomy;47
Veli-Antti;47
Akram;46
Andrej;46
Ayman;46
Daniele;46
Derek;46
Ebbe;46
Kamal;46
Sammeli;46
Aapi;45
Alek;45
Diar;45
Ensi;45
Fritz;45
Haidar;45
Ilo;45
Juhan;45
Mateo;45
Niiles;45
Oke;45
Velipekka;45
Veli-Petteri;45
Danil;44
Georgi;44
Janek;44
Jani-Petri;44
Jeppe;44
Joni-Matti;44
Jukkapekka;44
Nasir;44
Niko-Pekka;44
Nisse;44
Paul-Erik;44
Pietro;44
Reza;44
Rinaldo;44
Salah;44
Bror-Erik;43
Dino;43
Eetu-Petteri;43
Erpo;43
Evald;43
Florian;43
Hanno;43
Marwan;43
Mino;43
Päivö;43
Saad;43
Taha;43
Taro;43
Toma;43
Viki;43
Yassin;43
Ari-Petteri;42
Armin;42
Aslan;42
Bo-Göran;42
Hussain;42
Ilia;42
Joosa;42
Jopi;42
Juha-Heikki;42
Jusu;42
Lari-Pekka;42
Lars-Olof;42
Liban;42
Muisto;42
Omid;42
Romi;42
Teddy;42
Terjo;42
Xuan;42
Aki-Matti;41
Francesco;41
Jan-Ole;41
Jari-Petri;41
Kai-Erik;41
Kirmo;41
Marko-Tapio;41
Päiviö;41
Retu;41
Zakariya;41
Adem;40
Amadeus;40
Antony;40
Danial;40
Farid;40
Francis;40
Hakim;40
Idris;40
Jasin;40
Jorge;40
Kay;40
Nici;40
Remo;40
Roine;40
Seeti;40
Seth;40
Stefano;40
Stepan;40
Tarik;40
Untamo;40
Vasili;40
Veka;40
Aku-Petteri;39
Arif;39
Hakan;39
Haris;39
Hong;39
Ioannis;39
Jedi;39
Jerkko;39
Joeli;39
Jymy;39
Pasi-Petteri;39
Tomi-Petteri;39
Toni-Petteri;39
Venne;39
Aadam;38
Ake;38
Artjom;38
Ayuub;38
Baran;38
Chi;38
Dimitrios;38
Eilo;38
El;38
Filipp;38
Göte;38
Hannu-Matti;38
Jalmar;38
Jan-Eerik;38
Jaroslav;38
Larry;38
Lauri-Pekka;38
Owen;38
Philippe;38
Rickhard;38
Sippo;38
Tatu-Pekka;38
Theodore;38
Walid;38
Aabel;37
Abdulahi;37
Adiel;37
Ammar;37
Aziz;37
Carl-Eric;37
Darius;37
Dave;37
Efe;37
Farhan;37
Freddy;37
Gert;37
Iisko;37
Jaso;37
Joosu;37
Kristjan;37
Maxwell;37
Mikko-Matti;37
Nathaniel;37
Pellervo;37
Tico;37
Valentino;37
Viacheslav;37
Vilgot;37
Ville-Mikko;37
Arttu-Pekka;36
Bastian;36
Daavid;36
Donald;36
Eetu-Pekka;36
Eli;36
Emin;36
Gary;36
Hadi;36
Hashim;36
Hüseyin;36
Juha-Mikko;36
Kasmir;36
Kenan;36
Khalil;36
Lamin;36
Miitri;36
Mikko-Ville;36
Misca;36
Noam;36
Raphael;36
Salman;36
Sylvester;36
The;36
Tien;36
Veli-Markku;36
Aku-Pekka;35
Arda;35
Birk;35
Can;35
Christos;35
Evgeni;35
Frey;35
Hanad;35
Hendrik;35
Joas;35
Jouna;35
Jörn;35
Nicolai;35
Nikola;35
Nilo;35
Olli-Heikki;35
Oma;35
Osvald;35
Reidar;35
Ronni;35
Samu-Petteri;35
Setti;35
Veerti;35
Volter;35
Aare;34
Aaretti;34
Aari;34
Abdel;34
Abdiaziz;34
Alejandro;34
Antti-Matti;34
Ari-Juhani;34
Arni;34
Bashir;34
Claudio;34
Dan-Erik;34
Dario;34
Devin;34
Egon;34
Ervo;34
Fatih;34
Feeli;34
Georgij;34
German;34
Grigori;34
Hans-Peter;34
Hector;34
Jeeli;34
John-Erik;34
Leander;34
Mikko-Matias;34
Milad;34
Musab;34
Onni-Pekka;34
Philipp;34
Ramses;34
Simopekka;34
Tuovi;34
Varma;34
Willem;34
Vitaly;34
Yasir;34
Yonis;34
Aaku;33
Abdulrahman;33
Aiden;33
Allu;33
Angelo;33
Asad;33
Berat;33
Brahim;33
Cameron;33
Cong;33
Cosmo;33
Erol;33
Gleb;33
Harun;33
Henning;33
Ismael;33
Ivo;33
Jay;33
Jüri;33
Jyri-Petteri;33
Lars-Göran;33
Lawrence;33
Matti-Juhani;33
Metin;33
Niels;33
Nilla;33
Otto-Pekka;33
Rino;33
Saman;33
Samy;33
Sante;33
Uki;33
Veli-Juhani;33
Younes;33
Yousef;33
Yunus;33
Östen;33
Abdirisak;32
Antti-Oskari;32
Arjo;32
Bob;32
Bogdan;32
Conrad;32
Farhad;32
Fedor;32
Fernando;32
Habib;32
Iivar;32
Ingemar;32
Jaki;32
Janiel;32
Janus;32
Jere-Petteri;32
Jouni-Pekka;32
Juho-Heikki;32
Juho-Ville;32
Keith;32
Kemal;32
Kyle;32
Lorenzo;32
Mahir;32
Miilo;32
Mirka;32
Mitri;32
Nikolaj;32
Pierre;32
Pyry-Petteri;32
Remy;32
Silas;32
Sinan;32
Sonny;32
Suleiman;32
Tuan;32
Vilko;32
Ville-Juhani;32
Aalto;31
Arash;31
Dean;31
Dion;31
Dmitrii;31
Gregory;31
Halil;31
Jaime;31
Jamil;31
Jeffrey;31
Jeremiah;31
Johny;31
Juho-Matias;31
Jürgen;31
Kari-Tapio;31
Koitto;31
Mortti;31
Nolan;31
Olivier;31
Olli-Jussi;31
Pate;31
Samu-Pekka;31
Siilas;31
Thure;31
Tord;31
Valery;31
Vennu;31
Viima;31
Vili-Veikko;31
Abdirashid;30
Aripekka;30
Danila;30
Edi;30
Eliah;30
Enis;30
Fuad;30
Gennadi;30
Janos;30
Javier;30
Josia;30
Juha-Ville;30
Jules;30
Kivi;30
Lars-Eric;30
Lars-Henrik;30
Léo;30
Love;30
Miklos;30
Misha;30
Oki;30
Onur;30
Salim;30
Sigvard;30
Sointu;30
Stanley;30
Tarek;30
Tor-Björn;30
Wertti;30
Ville-Veikka;30
Vito;30
Abdallah;29
Abdinasir;29
Abdurahman;29
Adolf;29
Ailo;29
Alessio;29
Anssi-Pekka;29
Antoine;29
Aro;29
Billy;29
Calvin;29
Ernesti;29
Frederick;29
Ismet;29
Jared;29
Jarre;29
Juha-Markus;29
Juuso-Petteri;29
Kalle-Petteri;29
Larri;29
Mahamud;29
Mainio;29
Marvin;29
Mauro;29
Mooses;29
Nima;29
Osma;29
Pyry-Pekka;29
Tan;29
Théo;29
Vesa-Petteri;29
Ville-Eemeli;29
Yoonis;29
Abdirahim;28
Abraham;28
Alho;28
Atlas;28
Aydin;28
Bryan;28
Christoph;28
Enes;28
Enrico;28
Gideon;28
Gilbert;28
Goran;28
Guido;28
Heikki-Pekka;28
Husein;28
Imad;28
Iouri;28
Jussipekka;28
Kaappo;28
Kamil;28
Kari-Juhani;28
Kris;28
Lauri-Matti;28
Lion;28
Luqman;28
Maurits;28
Miles;28
Nuno;28
Pekka-Juhani;28
Remus;28
Ridwan;28
Rodi;28
Saku-Pekka;28
Sami-Petri;28
Sulho;28
Tani;28
Ukri;28
Walle;28
Vesa-Jukka;28
Abukar;27
Antti-Veikko;27
Benyamin;27
Enver;27
Erkan;27
Ervin;27
Hamse;27
Hartti;27
Henri-Pekka;27
Jaakko-Pekka;27
Jari-Juhani;27
Jimmie;27
Joosef;27
Jori-Pekka;27
Kai-Markus;27
Kalle-Matti;27
Leimu;27
Leopold;27
Mergim;27
Micah;27
Mustafe;27
Ramazan;27
Rane;27
Rudy;27
Santiago;27
Veeti-Valtteri;27
Ville-Antti;27
Xavier;27
Ylermi;27
Zakariye;27
Abdirizak;26
Ako;26
Alain;26
Alban;26
Andi;26
Arvin;26
Aryan;26
Asa;26
Bernard;26
Björn-Erik;26
Connor;26
Duy;26
Eddy;26
Eepi;26
Eero-Matti;26
Evgueni;26
Fabio;26
Federico;26
Helke;26
Joni-Markus;26
Joonas-Petteri;26
Juha-Veikko;26
Karolus;26
Lee;26
Mohsen;26
Nikko;26
Orhan;26
Pasi-Matti;26
Peder;26
Peeter;26
Ramon;26
Reini;26
Sasa;26
Simeoni;26
Sumu;26
Tanu;26
Tom-Erik;26
Trong;26
Umar;26
Ville-Heikki;26
Ville-Joonas;26
Ville-Samuli;26
Wilton;26
Yousif;26
Abdimalik;25
Aden;25
Alireza;25
András;25
Ardian;25
Are;25
Artin;25
Ayoub;25
Carolus;25
Dage;25
Damir;25
Eduardo;25
Eren;25
Fatmir;25
Feija;25
Ferhat;25
Gerhard;25
Gia;25
Hamsa;25
Jani-Markus;25
Jax;25
Jukka-Tapio;25
Jyri-Matti;25
Kai-Kristian;25
Kaiku;25
Kaj-Olof;25
Karwan;25
Lasse-Pekka;25
Liiban;25
Lorenz;25
Mattis;25
Matvey;25
Michele;25
Mick;25
Milian;25
Milos;25
Mirco;25
Miroslav;25
Misael;25
Nalle;25
Niko-Matti;25
Olli-Veikko;25
Ora;25
Peitsa;25
Per-Henrik;25
Rashid;25
Rick;25
Sami-Matti;25
Sani;25
Sébastien;25
Solomon;25
Tariq;25
Tero-Matti;25
Thien;25
Tomasz;25
Tryggve;25
Vasily;25
Veli-Markus;25
Viatcheslav;25
Viet;25
Vinh;25
Yannick;25
Aatami;24
Abbe;24
Aiman;24
Aldo;24
Alwin;24
Antti-Petteri;24
Ara;24
Attila;24
Austin;24
Bekim;24
Dahir;24
Douglas;24
Elliott;24
Ernesto;24
Faruk;24
Felipe;24
Giuseppe;24
Gustavo;24
Henno;24
Heppu;24
Iippo;24
Jarto;24
Jere-Pekka;24
Jethro;24
Juha-Tapio;24
Juho-Jaakko;24
Jurkka;24
Kadir;24
Kai-Mikael;24
Kassu;24
Kim-Erik;24
Kirka;24
Kurt-Erik;24
Leo-Pekka;24
Manfred;24
Maxime;24
Nikodemus;24
Petros;24
Rani;24
Riku-Ville;24
Sacha;24
Saif;24
Serhat;24
Shahin;24
Sigge;24
Stefanos;24
Terry;24
Tyler;24
Vili-Pekka;24
Ville-Waltteri;24
Villiam;24
Abdelaziz;23
Abdulla;23
Abdurrahman;23
Abu;23
Ari-Heikki;23
Ari-Jussi;23
Ari-Petri;23
Arlo;23
Dmytro;23
Ezra;23
Fouad;23
Giovanni;23
Hardy;23
Hossein;23
Jackson;23
Janne-Juhani;23
Jeemi;23
Jerko;23
Jiko;23
Jommi;23
Josa;23
Jun;23
Kerim;23
Le;23
Logan;23
Majid;23
Margus;23
Markos;23
Mica;23
Nader;23
Naser;23
Nikki;23
Olli-Juhani;23
Reda;23
Rein;23
Sakri;23
Timo-Juhani;23
Veli-Petri;23
Vesa-Petri;23
Wictor;23
Wincent;23
Vjatseslav;23
Vu;23
Yki;23
Abdiqani;22
Afrim;22
Alaa;22
Aleksandar;22
Andréas;22
Anselm;22
Antti-Eemeli;22
Antti-Heikki;22
Arseni;22
Bruuno;22
Carl-Axel;22
Carl-Oscar;22
Cedrik;22
Dana;22
Dmitrij;22
Driss;22
Eetu-Oskari;22
Elon;22
Espen;22
Fahad;22
Frans-Emil;22
Hamed;22
Heinz;22
Hessu;22
Hicham;22
Imre;22
Irfan;22
Jacques;22
Jami-Petteri;22
Jan-Ove;22
Jooas;22
Julien;22
Jurij;22
Khadar;22
Lenni-Kalle;22
Mete;22
Nichlas;22
Noureddine;22
Nur;22
Oleksandr;22
Onni-Oskari;22
Poju;22
Raikko;22
Robbie;22
Ruu;22
Saarni;22
Saeed;22
Sandro;22
Tarkko;22
Terje;22
Trung;22
Valon;22
Weikka;22
Veli-Ville;22
Abdellah;21
Abubakar;21
Adi;21
Ailu;21
Aku-Matti;21
Albion;21
Antreas;21
Aras;21
Ba;21
Baris;21
Bengt-Erik;21
Brage;21
Efraim;21
Egzon;21
Erland;21
Faysal;21
Freddie;21
Frederik;21
Gerald;21
Gunder;21
Hermann;21
Jama;21
Jan-Krister;21
Janrik;21
Jarl-Erik;21
Jegor;21
Joni-Petri;21
Juhopekka;21
Julio;21
Karrar;21
Leonidas;21
Lino;21
Mason;21
Matti-Petteri;21
Michail;21
Miika-Matias;21
Miran;21
Neil;21
Nicolás;21
Osama;21
Ossi-Pekka;21
Pirkka-Pekka;21
Rahim;21
Ringo;21
Rodrigo;21
Roomeo;21
Sami-Jussi;21
Sami-Ville;21
Shawn;21
Siimon;21
Tiko;21
Timo-Matti;21
Tomás;21
Tomek;21
Tommie;21
Touho;21
Upi;21
Urban;21
Wiggo;21
Wiljo;21
Yan;21
Yann;21
Aape;20
Abderrahmane;20
Agim;20
Aldin;20
Almir;20
Alper;20
Amer;20
Amine;20
Anatoly;20
Anttijussi;20
Aran;20
Bruce;20
Bujar;20
Cai;20
Caleb;20
Carl-Christian;20
Carl-Olof;20
Dany;20
Davide;20
Davin;20
Edin;20
Eeropekka;20
Emerik;20
Emile;20
Ensar;20
Ewan;20
Fadi;20
Firas;20
Georges;20
Georgy;20
Guled;20
Haider;20
Hannu-Heikki;20
Ilkka-Kristian;20
Jalle;20
Jan-Christer;20
Jan-Michael;20
Jiska;20
Juko;20
Jusuf;20
Kalle-Antti;20
Kalle-Oskari;20
Karl-Gustaf;20
Karl-Olof;20
Karl-Oskar;20
Kouta;20
Lars-Åke;20
Liibaan;20
Louie;20
Matti-Jussi;20
Micky;20
Mubarak;20
Nando;20
Nasim;20
Nikolaus;20
Niro;20
Olaf;20
Ollimatti;20
Olli-Mikko;20
Penna;20
Per-Johan;20
Petrik;20
Prince;20
Ramzi;20
Rebwar;20
Reni;20
Riccardo;20
Roobert;20
Salmaan;20
Sebastien;20
Serkan;20
Silver;20
Thommy;20
Walther;20
Vesa-Ville;20
Zaid;20
Abdirisaq;19
Alen;19
Alvaro;19
Amit;19
Andriy;19
Antonios;19
Arben;19
Ari-Mikko;19
Artto;19
Besnik;19
Burhan;19
Darren;19
Dominick;19
Eeri;19
Erfan;19
Furkan;19
Gaius;19
Gholam;19
Heikki-Juhani;19
Hendry;19
Hubert;19
Ilhan;19
Jeff;19
Jere-Matti;19
Jesse-Petteri;19
Jockum;19
Juho-Oskari;19
Jukka-Petri;19
Kaiho;19
Kilian;19
Lahja;19
Lari-Matti;19
Leni;19
Léon;19
Manh;19
Marios;19
Massimo;19
Maximillian;19
Mihhail;19
Mikko-Juhani;19
Murad;19
Nadir;19
Natanael;19
Nathanael;19
Nils-Johan;19
Nils-Olof;19
Nuka;19
Panu-Petteri;19
Pehr-Erik;19
Per-Åke;19
Piotr;19
Ronan;19
Sami-Jukka;19
Samson;19
Sandor;19
Sem;19
Sharif;19
Solmu;19
Sverre;19
Timoteus;19
Wei;19
Veli-Martti;19
Vellu;19
Viliam;19
Yassine;19
Yuusuf;19
Adan;18
Ahvo;18
Akira;18
Amadou;18
Antti-Jaakko;18
Arkan;18
Armend;18
Aso;18
Ati;18
Atilla;18
Atri;18
Axl;18
Bayram;18
Besim;18
Björn-Olof;18
Carl-Mikael;18
Constantin;18
Crister;18
Demir;18
Dexter;18
Didrik;18
Erick;18
Esapekka;18
Esa-Petteri;18
Evgenii;18
Feeliks;18
Franco;18
Grigory;18
Hai;18
Harrison;18
Hemming;18
Henric;18
Ilkka-Pekka;18
Jaakko-Juhani;18
Jaanus;18
Jafar;18
Jakov;18
Jonnie;18
Jontte;18
Joona-Petteri;18
Juha-Jaakko;18
Juuso-Pekka;18
Kai-Pekka;18
Kamran;18
Kari-Jukka;18
Kari-Jussi;18
Kasim;18
Kerem;18
László;18
Maks;18
Marko-Tapani;18
Meelis;18
Moses;18
Muscab;18
Naim;18
Nils-Göran;18
Norman;18
Olli-Ville;18
Onni-Matti;18
Paju;18
Peeti;18
Per-Eric;18
Rebin;18
Riad;18
Rocco;18
Rodney;18
Rohan;18
Ropi;18
Saabir;18
Safet;18
Salar;18
Savva;18
Soni;18
Soran;18
Tauri;18
Teemu-Pekka;18
Thai;18
Timitri;18
Tommi-Petteri;18
Uuras;18
Veli-Veikko;18
Vesamatti;18
Wiktor;18
Vili-Veikka;18
Ville-Kalle;18
Wilson;18
Yosef;18
Zakari;18
Zana;18
Abdikarim;17
Abdirahmaan;17
Abshir;17
Aleksej;17
Alve;17
Ansu;17
Antti-Mikael;17
Artan;17
Avni;17
Babak;17
Basil;17
Bore;17
Brendan;17
Caro;17
Cem;17
Cemal;17
Cevin;17
Danilo;17
Emran;17
Enrique;17
Farah;17
Ferdinand;17
Ghulam;17
Gökhan;17
Hari;17
Heinrich;17
Hisham;17
Ilmar;17
Immanuel;17
Isa;17
Iska;17
István;17
Jan-Åke;17
Jere-Matias;17
Jesse-Pekka;17
Jibril;17
João;17
Josiah;17
Juho-Mikko;17
Kai-Petteri;17
Kalle-Ville;17
Kari-Petteri;17
Kawa;17
Kristopher;17
Kuuno;17
Kåre;17
Leart;17
Loke;17
Luan;17
Marno;17
Meo;17
Michal;17
Mihkel;17
Mikkel;17
Niko-Petri;17
Onni-Kalle;17
Pawel;17
Per-Håkan;17
Rami-Pekka;17
Renni;17
Rida;17
River;17
Rodion;17
Sabah;17
Saleh;17
Salem;17
Serge;17
Sergio;17
Sharmarke;17
Sirwan;17
Teemu-Petteri;17
Timofey;17
Toni-Markus;17
Valfrid;17
Velmeri;17
Velmu;17
Wilhelmi;17
Ville-Aleksi;17
Ville-Hermanni;17
Ville-Jussi;17
Wolf;17
Wolfgang;17
Yaroslav;17
Yasser;17
Yonatan;17
Abdelkader;16
Abdihakim;16
Abdullaahi;16
Adriano;16
Alf-Erik;16
Alpertti;16
Amjad;16
Anis;16
Anttipekka;16
Arhi;16
Ari-Veikko;16
Ari-Ville;16
Art;16
Besart;16
Bülent;16
Castor;16
Christophe;16
Cian;16
Cody;16
Demian;16
Dilan;16
Dinh;16
Diyar;16
Dorian;16
Ebrahim;16
Eddi;16
Edmond;16
Ehsan;16
Emad;16
Emrah;16
Enso;16
Fadil;16
Félix;16
Fidel;16
Filippo;16
Firat;16
Fredrick;16
Geoffrey;16
Hans-Olof;16
Hektor;16
Henkka;16
Iipo;16
Imraan;16
Indrek;16
Ioan;16
Jari-Heikki;16
Jarkko-Pekka;16
Jesse-Joonas;16
Jimmi;16
Jonte;16
Juho-Kusti;16
Juho-Tuomas;16
Kaj-Mikael;16
Kalle-Eemeli;16
Kalle-Juhani;16
Khaalid;16
Kjell-Erik;16
Leif-Erik;16
Mahmud;16
Malek;16
Markku-Pekka;16
Mateus;16
Matt;16
Maxi;16
Mickey;16
Miiku;16
Mikko-Oskari;16
Miro-Matias;16
Mirza;16
Morad;16
Muaad;16
Najib;16
Nasser;16
Natan;16
Nuur;16
Onni-Eemeli;16
Pami;16
Raed;16
Raman;16
Reimo;16
Rex;16
Rian;16
Rinor;16
Rocky;16
Ross;16
Salih;16
Samer;16
Samuele;16
Samu-Ville;16
Semen;16
Senad;16
Serdar;16
Sherif;16
Tahir;16
Tao;16
Tiago;16
Tiera;16
Timjami;16
Toby;16
Tran;16
Trevor;16
Tri;16
Ulrik;16
Umut;16
Veija;16
Veli-Hannu;16
Veli-Pentti;16
Ville-Vesa;16
Vilpas;16
Voima;16
Volmari;16
Yuri;16
Zoltán;16
Abdalla;15
Aivar;15
Ajan;15
Aku-Ville;15
Alexandru;15
Amon;15
Antonis;15
Arbnor;15
Aren;15
Arlind;15
Artemi;15
Arton;15
Arto-Pekka;15
Ata;15
Ayhan;15
Cary;15
Cengiz;15
Cole;15
Ekke;15
Elijas;15
Elion;15
Erdal;15
Erkka-Pekka;15
Erkki-Mikael;15
Evangelos;15
Farzad;15
Fedja;15
Feodor;15
Geir;15
Gennady;15
Harold;15
Heikki-Matti;15
Heimer;15
Hemi;15
Ingvald;15
Jakub;15
Jalal;15
Jan-Magnus;15
Jan-Patrik;15
Jari-Antti;15
Juho-Kalle;15
Ka;15
Kajo;15
Kale;15
Kami;15
Kelvin;15
Kie;15
Kieran;15
Klas-Erik;15
Lewis;15
Mahmood;15
Make;15
Mart;15
Masoud;15
Mauricio;15
Mesut;15
Mihka;15
Mika-Juhani;15
Mikel;15
Mir;15
Morten;15
Mubashir;15
Muhsin;15
Mustaf;15
Nikos;15
Oska;15
Ousman;15
Paul-Henrik;15
Péter;15
Raikas;15
Ram;15
Ramadan;15
Raphaël;15
Sakaria;15
Sami-Antti;15
Seelim;15
Shane;15
Sigfrid;15
Simi;15
Stavros;15
Sunny;15
Tatu-Matti;15
Thorolf;15
Timka;15
Timo-Petteri;15
Timo-Tapio;15
Tommaso;15
Toni-Matti;15
Toni-Petri;15
Ugur;15
Ulf-Erik;15
Uoti;15
Uwe;15
Wai;15
Veli-Valtteri;15
Villematti;15
Ville-Pertti;15
Virmo;15
Vitaliy;15
Yacine;15
Zakarias;15
Zaki;15
Aadolf;14
Aapro;14
Abderrahim;14
Abdiasis;14
Abdulaziz;14
Adnaan;14
Akim;14
Aki-Petri;14
Alexandro;14
Alfonso;14
Aman;14
Amiin;14
Andrés;14
Andrus;14
Antti-Jukka;14
Arin;14
Armando;14
Armi;14
Arn;14
Arun;14
Astor;14
Bajram;14
Bedri;14
Behzad;14
Bernd;14
Burak;14
Carl-Fredrik;14
Craig;14
Daud;14
Dima;14
Ebrima;14
Edmund;14
Eldar;14
Elwin;14
Ensti;14
Erwin;14
Esra;14
Faris;14
Faton;14
Gabriele;14
Guillermo;14
Haakon;14
Hiwa;14
Horst;14
Iiro-Pekka;14
Iman;14
Ingolf;14
Jani-Mikael;14
Jannis;14
Jari-Markus;14
Jaripekka;14
Jeton;14
Joan;14
Jocke;14
Jude;14
Juho-Eemil;14
Jusef;14
Juusa;14
Jörg;14
Kaan;14
Kai-Eerik;14
Karam;14
Kareem;14
Karl-Magnus;14
Karol;14
Khac;14
Latif;14
Mahmut;14
Malcolm;14
Markku-Juhani;14
Marko-Juhani;14
Masud;14
Matti-Mikael;14
Matts-Erik;14
Mentor;14
Mies;14
Miika-Markus;14
Mishka;14
Mourad;14
Muad;14
Muhamad;14
Muslim;14
Nhat;14
Nico-Petteri;14
Nipa;14
Nour;14
Onni-Matias;14
Ossi-Petteri;14
Otto-Oskari;14
Panu-Pekka;14
Per-Anders;14
Per-Göran;14
Rafik;14
Rai;14
Rain;14
Randy;14
Reuben;14
Sabir;14
Saki;14
Saku-Matti;14
Santino;14
Semih;14
Shaun;14
Shayan;14
Siim;14
Sirius;14
Stuart;14
Sverker;14
Tamás;14
Tane;14
Taoufik;14
Taru;14
Thore;14
Thorvald;14
Timo-Jukka;14
Tomer;14
Travis;14
Vanja;14
Vedat;14
Vesa-Veikko;14
Wihtori;14
Villeveikko;14
Vitalii;14
Volmar;14
Vyacheslav;14
Vänni;14
Yakup;14
Zion;14
Abdishakur;13
Agron;13
Akam;13
Akif;13
Aki-Jussi;13
Akke;13
Alari;13
Amiir;13
Andrzej;13
Antti-Mikko;13
Aris;13
Áron;13
Arseny;13
Asto;13
Axu;13
Bakhtiar;13
Bekir;13
Béla;13
Benja;13
Blake;13
Cao;13
Carl-Göran;13
Carsten;13
Casmir;13
Csaba;13
Dan-Anders;13
Danel;13
Davi;13
Deni;13
Derrick;13
Eben;13
Edon;13
Eemel;13
Eeno;13
Eino-Juhani;13
Eino-Pekka;13
Ekrem;13
Emiliano;13
Ercan;13
Erich;13
Erkki-Jussi;13
Erkki-Pekka;13
Esaias;13
Esu;13
Gordon;13
Grels;13
Hamzah;13
Hamze;13
Hans-Göran;13
Hansi;13
Hardi;13
Hung;13
Hunter;13
Ilan;13
Ilir;13
Iljas;13
Ilyaas;13
Immu;13
Jahn;13
Janis;13
Jan-Sebastian;13
Jaromir;13
Joannis;13
Joao;13
Joni-Mikael;13
Josse;13
Juha-Veli;13
Jukka-Tapani;13
Karl-Anton;13
Kiri;13
Lare;13
Lars-Peter;13
Lior;13
Lulzim;13
Lyly;13
Maher;13
Mamadou;13
Mano;13
Margo;13
Marian;13
Mehran;13
Mickael;13
Mika-Markus;13
Mirsad;13
Mischa;13
Momodou;13
Muhannad;13
Muharrem;13
Munasar;13
Munir;13
Musse;13
Nabeel;13
Norbert;13
Oktay;13
Otto-Emil;13
Pavlos;13
Penjami;13
Pette;13
Petu;13
Phi;13
Pohto;13
Pär-Erik;13
Rahman;13
Rahul;13
Raiko;13
Ransu;13
Repe;13
Rieti;13
Roki;13
Sabri;13
Sascha;13
Seif;13
Semir;13
Sergiy;13
Sid;13
Simo-Petteri;13
Sinuhe;13
Süleyman;13
Tam;13
Tanel;13
Terence;13
Tero-Petteri;13
Timo-Jussi;13
Timo-Tapani;13
Tommo;13
Toni-Mikael;13
Topi-Matti;13
Usama;13
Vasilij;13
Weikko;13
Veino;13
Veli-Tapani;13
Veli-Tapio;13
Vesa-Tapio;13
Viimo;13
Vili-Verneri;13
Ville-Tapio;13
Ville-Tuomas;13
Vilmeri;13
Volkan;13
Volodymyr;13
Xander;13
Yaasir;13
Yaqub;13
Yilmaz;13
Yousuf;13
Abdikadir;12
Abdillahi;12
Abdisalam;12
Abdulqadir;12
Adrien;12
Aleksandros;12
Angel;12
Antti-Einari;12
Antti-Tapio;12
Anuar;12
Araz;12
Arber;12
Ares;12
Arri;12
Arsen;12
Asher;12
Asse;12
Auku;12
Bahman;12
Bashkim;12
Benedict;12
Bengt-Olof;12
Bilaal;12
Blerim;12
Cajus;12
Camilo;12
Clas-Göran;12
Claude;12
Dmitriy;12
Dome;12
Doni;12
Eetu-Matti;12
Eetu-Ville;12
Eetvi;12
Ele;12
Elmar;12
Elyas;12
Enok;12
Erion;12
Esa-Jussi;12
Esa-Petri;12
Ewert;12
Eyal;12
Fatos;12
Fikret;12
Finlay;12
Finley;12
Fitim;12
Franklin;12
Fride;12
Gani;12
Granit;12
Hamdi;12
Hani;12
Hanne;12
Hawkar;12
Heikki-Tapio;12
Helmut;12
Henri-Mikael;12
Huima;12
Ihsan;12
Ikenna;12
Iko;12
Ion;12
Israel;12
Issa;12
Jann;12
Janne-Markus;12
Jarek;12
Jari-Jussi;12
Jari-Mikko;12
Jari-Tapio;12
Jauri;12
Jayson;12
Jico;12
Joah;12
Joël;12
Jon-Erik;12
Joni-Juhani;12
Joona-Pekka;12
Joonathan;12
Jousia;12
Juha-Markku;12
Juha-Pertti;12
Jussi-Heikki;12
Jussi-Mikko;12
Kaarne;12
Kai-Juhani;12
Kaijus;12
Kalle-Valtteri;12
Kalle-Veikko;12
Karipekka;12
Karzan;12
Kelpo;12
Klas-Göran;12
Kosma;12
Kristen;12
Kushtrim;12
Lars-Ole;12
Lassi-Matti;12
Laurent;12
Leandro;12
Lex;12
Lorentz;12
Lorik;12
Lowe;12
Mansur;12
Marat;12
Marko-Mikael;12
Marko-Pekka;12
Mats-Erik;12
Matte;12
Mattia;12
Matti-Esko;12
Mihku;12
Miihkali;12
Mukhtar;12
Nali;12
Nicola;12
Nils-Eric;12
Nizar;12
Noar;12
Noé;12
Noël;12
Noor;12
Olli-Antti;12
Ollie;12
Olli-Oskari;12
Outi;12
Panagiotis;12
Patu;12
Pedram;12
Phuoc;12
Piko;12
Pjotr;12
Raimond;12
Reine;12
Reittu;12
Rikumatti;12
Rory;12
Rostislav;12
Sadiq;12
Salam;12
Sameer;12
Sándor;12
Shaho;12
Sony;12
Styrbjörn;12
Taave;12
Taher;12
Tempo;12
Thiago;12
Thorbjörn;12
Thord;12
Thorsten;12
Todd;12
Toni-Kristian;12
Toni-Tapio;12
Tonny;12
Tyson;12
Udo;12
Valdo;12
Waleed;12
Valeriy;12
Veli-Kalle;12
Wiliam;12
Ville-Sakari;12
Vinha;12
Visa-Pekka;12
Vsevolod;12
Yahia;12
Yaxye;12
Youcef;12
Zain;12
Zeb;12
Ziad;12
Abas;11
Abd;11
Abdellatif;11
Abdulaahi;11
Adar;11
Al;11
Alfredo;11
Alieu;11
Altin;11
Antti-Ilari;11
Antti-Matias;11
Ardit;11
Ari-Juha;11
Ario;11
Arkadi;11
Arte;11
Ashraf;11
Atos;11
Barry;11
Behar;11
Beni;11
Bjørn;11
Cecil;11
Collin;11
Cristiano;11
Daan;11
Damon;11
Dimitris;11
Dirk;11
Ebenezer;11
Emmett;11
Emrik;11
Endrit;11
Erko;11
Eugene;11
Fahim;11
Fehmi;11
Florent;11
Gael;11
Gazmend;11
Gerard;11
Gottfrid;11
Guennadi;11
Haci;11
Han;11
Haron;11
Haroun;11
Hayden;11
Hayder;11
Heljo;11
Hemminki;11
Huy;11
Ila;11
Inge;11
Innocent;11
Jaakko-Matti;11
Janko;11
Jan-Martin;11
Jan-Roger;11
Jari-Veikko;11
Jarkko-Juhani;11
Jasir;11
Jasmin;11
Jeriko;11
Jesse-Juhani;11
Jimy;11
Jino;11
Johan-Erik;11
Joni-Kristian;11
Jonttu;11
Joopi;11
Jori-Matti;11
Jouni-Matti;11
Juha-Erkki;11
Juho-Erik;11
Juhomatti;11
Junno;11
Jussi-Joonas;11
Jyri-Petri;11
Kai-Petri;11
Kaj-Henrik;11
Kajus;11
Kalid;11
Karri-Pekka;11
Kastriot;11
Kert;11
Kien;11
Kim-Henrik;11
Kim-Johan;11
Koda;11
Krisse;11
Kristof;11
Ledion;11
León;11
Leroy;11
Lias;11
Lloyd;11
Lotfi;11
Luuka;11
Maahir;11
Mansour;11
Marcello;11
Marko-Petteri;11
Mascuud;11
Matthieu;11
Matti-Veikko;11
Maurice;11
Mertzi;11
Mika-Erik;11
Mika-Tapio;11
Miro-Petteri;11
Mitjo;11
Nael;11
Nazar;11
Nguyen;11
Nhu;11
Nic;11
Nihat;11
Noeli;11
Okan;11
Onni-Elmeri;11
Oscari;11
Pelle;11
Raafael;11
Raivo;11
Ramesh;11
Ramiz;11
Remzi;11
Roope-Oskari;11
Roshan;11
Rui;11
Rupert;11
Sadik;11
Saeid;11
Salvatore;11
Sami-Kristian;11
Sead;11
Semmi;11
Shahram;11
Shwan;11
Sipan;11
Sofiane;11
Soheil;11
Steffen;11
Sten-Olof;11
Suhaib;11
Suheyb;11
Sunil;11
Tamer;11
Teri;11
Tero-Tapio;11
Timo-Heikki;11
Toive;11
Tommi-Pekka;11
Turjo;11
Wael;11
Vahid;11
Walton;11
Veli-Erkki;11
Veli-Jaakko;11
Venneri;11
Wenni;11
Vesa-Antti;11
Wesley;11
Vexi;11
Ville-Mikael;11
Villepekka;11
Ville-Tapani;11
Ville-Veli;11
Wisam;11
Visa-Matti;11
Visar;11
Ykä;11
Yrjänä;11
Zakarie;11
Zoran;11
Zsolt;11
Aapo-Matti;10
Abdelghani;10
Abdelkarim;10
Abdiwali;10
Abdiweli;10
Abdoulie;10
Abdukadir;10
Adrián;10
Ajdin;10
Ajmal;10
Akil;10
Akilles;10
Aleksey;10
Alon;10
Amel;10
Anatolij;10
Anil;10
Anse;10
Anthonio;10
Antti-Olli;10
Arion;10
Ari-Tapio;10
Arsalan;10
Arsim;10
Arttu-Eemeli;10
Arwid;10
Assar;10
Atte-Oskari;10
Augustin;10
Axeli;10
Badr;10
Bahram;10
Barham;10
Bashiir;10
Bennet;10
Berk;10
Carl-Anders;10
Carson;10
Cemil;10
Cesar;10
Conor;10
Cooper;10
Cyril;10
Dániel;10
Danyal;10
Dariush;10
Davy;10
Denys;10
Deon;10
Desmond;10
Dimi;10
Dimitar;10
Eero-Veikko;10
Eijo;10
Engin;10
Erasmus;10
Erling;10
Eron;10
Esamatti;10
Etvi;10
Fathi;10
Ferenc;10
Fidan;10
Fionn;10
Gavin;10
Georgii;10
Ghassan;10
Ghazi;10
Gil;10
Giulio;10
Hakon;10
Halit;10
Hans-Christian;10
Hans-Henrik;10
Hany;10
Harras;10
Harro;10
Hassen;10
Haydar;10
Hedi;10
Henri-Matias;10
Hristo;10
Ibraahim;10
Idiris;10
Isaiah;10
Ishak;10
Isse;10
Jaarli;10
Jaden;10
Jan-Emil;10
Jan-Gustav;10
Jan-Håkan;10
Jani-Jukka;10
Jani-Kristian;10
Jannik;10
Janno;10
János;10
Jari-Juha;10
Jarimatti;10
Jasmo;10
Jean-Paul;10
Jehki;10
Jelmeri;10
Jerkka;10
Jerzy;10
Jesus;10
Jian;10
Joackim;10
Jochen;10
Jonne-Pekka;10
Joona-Matias;10
Joonia;10
Jori-Petteri;10
Josias;10
Josu;10
Joutsi;10
Juha-Mikael;10
Juho-Aleksi;10
Junior;10
Jussi-Tuomas;10
Jussi-Ville;10
Jyrki-Pekka;10
Kaj-Gustav;10
Kaj-Johan;10
Kalle-Markus;10
Kambiz;10
Kamu;10
Karar;10
Kardo;10
Kari-Antti;10
Kari-Veikko;10
Karl-Anders;10
Karl-Gunnar;10
Kaveh;10
Kille;10
Kim-Peter;10
Kingsley;10
Kwok;10
Lahoucine;10
Lari-Petteri;10
Lauri-Juhani;10
Leith;10
Lennie;10
Lennon;10
Luc;10
Luiz;10
Lumo;10
Luucas;10
Makar;10
Marcin;10
Mariwan;10
Matin;10
Matti-Tapio;10
Maximiliam;10
Melik;10
Miclas;10
Miika-Matti;10
Miikka-Matias;10
Mikko-Jussi;10
Modou;10
Mokhtar;10
Moussa;10
Moustafa;10
Mubarik;10
Muhamet;10
Murtada;10
Nabiil;10
Nadeem;10
Navid;10
Nietos;10
Niko-Markus;10
Niko-Ville;10
Obinna;10
Olli-Tapio;10
Olov;10
Onni-Ilmari;10
Otto-Eemeli;10
Ozan;10
Pehr-Olof;10
Penja;10
Petar;10
Petri-Juhani;10
Phuc;10
Platon;10
Rafi;10
Ramiar;10
Rando;10
Rasul;10
Rebaz;10
Renat;10
Renato;10
Reo;10
Ridwaan;10
Roopert;10
Sai;10
Samba;10
Samiir;10
Samo;10
Samueli;10
Santtu-Pekka;10
Seán;10
Sere;10
Sergej;10
Set;10
Seve;10
Shahid;10
Sheikh;10
Shuaib;10
Simo-Heikki;10
Sohrab;10
Sorjo;10
Stig-Ole;10
Sulaiman;10
Suleyman;10
Suune;10
Sven-Eric;10
Sylvain;10
Tate;10
Tomi-Matti;10
Topi-Pekka;10
Ukkopekka;10
Umberto;10
Vallu;10
Warren;10
Vassili;10
Veeli;10
Veli-Tuomas;10
Wen;10
Veniamin;10
Vesa-Mikko;10
Vesa-Valtteri;10
Vicente;10
Vide;10
Wilfred;10
Ville-Martti;10
Vincenzo;10
Wojciech;10
Väiski;10
Yaser;10
Yavuz;10
Ümit;10
Yoav;10
Younis;10
Yu;10
Yuriy;10
Yussuf;10
Zack;10
Zubair;10
Örjan;10
